…
head(gsadf)
#> $stock
#> # A tibble: 336 x 2
#>    date       price
#>    <date>     <dbl>
#>  1 2020-01-01 7200.
#>  2 2020-01-02 6985.
#>  3 2020-01-03 7344.
#>  4 2020-01-04 7410.
#>  5 2020-01-05 7410.
#>  6 2020-01-06 7768.
#>  7 2020-01-07 8162.
#>  8 2020-01-08 8078.
#>  9 2020-01-09 7877.
#> 10 2020-01-10 8164.
#> # ... with 326 more rows
#> 
#> $result
#> # A tibble: 812 x 7
#> # Rowwise: 
#>     estimate std_error t_value start_day end_day interval_length p_val
#>        <dbl>     <dbl>   <dbl>     <dbl>   <dbl>           <dbl> <dbl>
#>  1  0.00191    0.00352   0.543         0      60              60 0.821
#>  2  0.00238    0.00344   0.693         5      65              60 0.854
#>  3 -0.000808   0.00358  -0.226        10      70              60 0.589
#>  4 -0.00622    0.00650  -0.956        15      75              60 0.302
#>  5 -0.00536    0.00695  -0.772        20      80              60 0.378
#>  6 -0.00439    0.00722  -0.607        25      85              60 0.444
#>  7 -0.00734    0.00736  -0.997        30      90              60 0.285
#>  8 -0.00628    0.00759  -0.828        35      95              60 0.356
#>  9 -0.00817    0.00777  -1.05         40     100              60 0.264
#> 10 -0.0102     0.00802  -1.28         45     105              60 0.189
#> # ... with 802 more rows
```
…
